{
  "baseUrl": "https://localhost:8443/",
  "fixturesFolder": "test/fixtures",
  "integrationFolder": "test/cypress/integration",
  "pluginsFile": "test/cypress/plugins/index.js",
  "screenshotsFolder": "test/cypress/screenshots",
  "supportFile": "test/cypress/support/index.js",
  "video": false,
  "json.schemas": [
    {
      "fileMatch": [
        "cypress.json"
      ],
      "url": "https://on.cypress.io/cypress.schema.json"
    }
  ],
  "projectId": "8f1w61"
}
