{
  "@quasar/testing": {
    "harnesses": [
      "unit-jest",
      "e2e-cypress",
      "quality"
    ]
  },
  "@quasar/testing-unit-jest": {
    "babel": "babelrc",
    "options": [
      "scripts"
    ]
  },
  "@quasar/testing-quality": {
    "options": [
      "scripts"
    ]
  }
}