{
    "measurement_type": "metabolite profiling",
    "technology_type": "mass spectrometry",
    "workflow": [
        [
            "extraction",
            {
                "#replicates": {
                    "defaultValue": 1
                }
            }
        ],
        [
            "extract",
            [
                {
                    "node_type": "EXTRACT",
                    "characteristics_category": "extract type",
                    "characteristics_value": {
                        "defaultValues": ["polar fraction", "nonpolar fraction"]
                    },
                    "is_input_to_next_protocols": {
                        "defaultValue": true
                    }
                }
            ]
        ],
        [
            "labelling",
            {
                "#replicates": {
                    "defaultValue": 1
                }
            }
        ],
        [
            "labelled extract",
            [
                {
                    "node_type": "LABELED_EXTRACT",
                    "characteristics_category": "labelled extract type",
                    "characteristics_value": {
                        "defaultValues": []
                    },
                    "is_input_to_next_protocols": {
                        "defaultValue": true
                    }
                }
            ]
        ],
        [
            "mass spectrometry",
            {
                "#replicates": {
                    "defaultValue": 2
                },
                "instrument": {
                    "defaultValues": [
                        "Agilent QTQF 6510",
                        "Agilent QTQF 6520A"
                    ]
                },
                "injection_mode": {
                    "defaultValues": [
                        "FIA",
                        "LC"
                ]},
                "acquisition_mode": {
                    "defaultValues": [
                        "positive mode",
                        "negative mode"
                ]}
            }
        ],
        [            
            "raw spectral data file", 
            [
                {
                    "node_type": "DATA_FILE",
                    "is_input_to_next_protocols": {
                        "defaultValue": true
                    }
                }
            ]
        ]
    ]
}